{
  "count": 964,
  "next": "https://pokeapi.co/api/v2/pokemon?offset=20&limit=20",
  "previous": null,
  "results": [{
      "id": "1",
      "name": "Valerie",
      "url": "/address1.json"
    },
    {
      "id": "2",
      "name": "Flora",
      "url": "/address2.json"
    },
    {
      "id": "3",
      "name": "Kinski",
      "url": "/address2.json"
    },
    {
      "id": "4",
      "name": "Herzog",
      "url": "/address2.json"
    },
    {
      "id": "5",
      "name": "Paul",
      "url": "/address1.json"
    },
    {
      "id": "6",
      "name": "Herbert",
      "url": "/address2.json"
    },
    {
      "id": "7",
      "name": "Mueller",
      "url": "/address2.json"
    }
  ]
}
